<?xml version="1.0" encoding="UTF-8"?>
<svg xmlns="http://www.w3.org/2000/svg" xmlns:xlink="http://www.w3.org/1999/xlink" width="522pt" height="555pt" viewBox="0 0 522 555" version="1.1">
<defs>
<g>
<symbol overflow="visible" id="glyph0-0">
<path style="stroke:none;" d="M 1.425781 0 L 1.425781 -13.742188 L 4.125 -13.742188 L 9.75 -4.566406 L 9.75 -13.742188 L 12.328125 -13.742188 L 12.328125 0 L 9.542969 0 L 4.003906 -8.960938 L 4.003906 0 Z M 1.425781 0 "/>
</symbol>
<symbol overflow="visible" id="glyph0-1">
<path style="stroke:none;" d="M 7.144531 -3.167969 L 9.769531 -2.726563 C 9.425781 -1.761719 8.894531 -1.03125 8.167969 -0.527344 C 7.441406 -0.0273438 6.53125 0.222656 5.4375 0.226563 C 3.703125 0.222656 2.421875 -0.339844 1.59375 -1.472656 C 0.9375 -2.375 0.609375 -3.519531 0.609375 -4.902344 C 0.609375 -6.550781 1.039063 -7.84375 1.902344 -8.777344 C 2.761719 -9.710938 3.851563 -10.175781 5.175781 -10.179688 C 6.652344 -10.175781 7.820313 -9.6875 8.679688 -8.710938 C 9.53125 -7.730469 9.941406 -6.234375 9.910156 -4.21875 L 3.308594 -4.21875 C 3.324219 -3.4375 3.535156 -2.828125 3.945313 -2.394531 C 4.347656 -1.957031 4.855469 -1.738281 5.464844 -1.742188 C 5.875 -1.738281 6.222656 -1.851563 6.507813 -2.078125 C 6.785156 -2.300781 6.996094 -2.664063 7.144531 -3.167969 Z M 7.292969 -5.832031 C 7.273438 -6.589844 7.078125 -7.171875 6.703125 -7.570313 C 6.328125 -7.964844 5.871094 -8.160156 5.335938 -8.164063 C 4.757813 -8.160156 4.28125 -7.953125 3.910156 -7.539063 C 3.53125 -7.117188 3.347656 -6.546875 3.355469 -5.832031 Z M 7.292969 -5.832031 "/>
</symbol>
<symbol overflow="visible" id="glyph0-2">
<path style="stroke:none;" d="M 1.132813 0.65625 L 4.144531 1.023438 C 4.191406 1.371094 4.308594 1.609375 4.492188 1.742188 C 4.738281 1.925781 5.132813 2.019531 5.671875 2.023438 C 6.359375 2.019531 6.875 1.917969 7.21875 1.714844 C 7.449219 1.574219 7.621094 1.351563 7.742188 1.050781 C 7.820313 0.828125 7.863281 0.429688 7.867188 -0.160156 L 7.867188 -1.613281 C 7.074219 -0.535156 6.078125 0 4.882813 0 C 3.542969 0 2.484375 -0.5625 1.707031 -1.695313 C 1.089844 -2.585938 0.785156 -3.699219 0.789063 -5.035156 C 0.785156 -6.699219 1.1875 -7.976563 1.992188 -8.859375 C 2.792969 -9.738281 3.789063 -10.175781 4.988281 -10.179688 C 6.214844 -10.175781 7.230469 -9.636719 8.035156 -8.558594 L 8.035156 -9.957031 L 10.5 -9.957031 L 10.5 -1.023438 C 10.5 0.152344 10.402344 1.027344 10.207031 1.613281 C 10.011719 2.191406 9.738281 2.648438 9.390625 2.980469 C 9.039063 3.308594 8.574219 3.566406 7.992188 3.757813 C 7.40625 3.941406 6.664063 4.035156 5.773438 4.039063 C 4.082031 4.035156 2.886719 3.746094 2.183594 3.171875 C 1.476563 2.589844 1.125 1.859375 1.125 0.976563 C 1.125 0.886719 1.125 0.78125 1.132813 0.65625 Z M 3.488281 -5.183594 C 3.484375 -4.125 3.691406 -3.351563 4.101563 -2.863281 C 4.507813 -2.371094 5.011719 -2.125 5.617188 -2.128906 C 6.257813 -2.125 6.800781 -2.378906 7.246094 -2.882813 C 7.6875 -3.382813 7.910156 -4.125 7.914063 -5.117188 C 7.910156 -6.144531 7.695313 -6.910156 7.273438 -7.414063 C 6.84375 -7.910156 6.308594 -8.160156 5.664063 -8.164063 C 5.027344 -8.160156 4.507813 -7.917969 4.101563 -7.429688 C 3.691406 -6.9375 3.484375 -6.1875 3.488281 -5.183594 Z M 3.488281 -5.183594 "/>
</symbol>
<symbol overflow="visible" id="glyph0-3">
<path style="stroke:none;" d="M 3.347656 -6.917969 L 0.957031 -7.351563 C 1.222656 -8.308594 1.6875 -9.019531 2.34375 -9.484375 C 3 -9.945313 3.972656 -10.175781 5.269531 -10.179688 C 6.441406 -10.175781 7.316406 -10.039063 7.894531 -9.761719 C 8.464844 -9.484375 8.871094 -9.128906 9.109375 -8.703125 C 9.339844 -8.273438 9.457031 -7.488281 9.460938 -6.347656 L 9.429688 -3.273438 C 9.425781 -2.394531 9.46875 -1.75 9.554688 -1.335938 C 9.636719 -0.917969 9.796875 -0.472656 10.03125 0 L 7.425781 0 C 7.351563 -0.171875 7.269531 -0.429688 7.171875 -0.777344 C 7.125 -0.929688 7.09375 -1.03125 7.078125 -1.085938 C 6.625 -0.644531 6.140625 -0.316406 5.632813 -0.101563 C 5.117188 0.117188 4.570313 0.222656 3.992188 0.226563 C 2.964844 0.222656 2.160156 -0.0546875 1.570313 -0.609375 C 0.976563 -1.164063 0.679688 -1.867188 0.683594 -2.71875 C 0.679688 -3.28125 0.8125 -3.78125 1.085938 -4.222656 C 1.351563 -4.660156 1.730469 -4.996094 2.21875 -5.234375 C 2.699219 -5.464844 3.398438 -5.671875 4.3125 -5.851563 C 5.542969 -6.078125 6.394531 -6.292969 6.871094 -6.496094 L 6.871094 -6.757813 C 6.867188 -7.261719 6.742188 -7.625 6.496094 -7.839844 C 6.242188 -8.054688 5.769531 -8.160156 5.082031 -8.164063 C 4.609375 -8.160156 4.246094 -8.070313 3.984375 -7.886719 C 3.71875 -7.703125 3.503906 -7.378906 3.347656 -6.917969 Z M 6.871094 -4.78125 C 6.53125 -4.667969 5.996094 -4.53125 5.269531 -4.378906 C 4.535156 -4.21875 4.058594 -4.066406 3.835938 -3.917969 C 3.488281 -3.671875 3.316406 -3.363281 3.320313 -2.992188 C 3.316406 -2.621094 3.453125 -2.300781 3.730469 -2.035156 C 4.003906 -1.761719 4.355469 -1.628906 4.78125 -1.632813 C 5.253906 -1.628906 5.707031 -1.785156 6.140625 -2.101563 C 6.457031 -2.335938 6.664063 -2.625 6.769531 -2.972656 C 6.832031 -3.191406 6.867188 -3.621094 6.871094 -4.257813 Z M 6.871094 -4.78125 "/>
</symbol>
<symbol overflow="visible" id="glyph0-4">
<path style="stroke:none;" d="M 5.945313 -9.957031 L 5.945313 -7.855469 L 4.144531 -7.855469 L 4.144531 -3.84375 C 4.140625 -3.03125 4.160156 -2.554688 4.195313 -2.421875 C 4.226563 -2.285156 4.304688 -2.175781 4.429688 -2.089844 C 4.550781 -2 4.699219 -1.957031 4.875 -1.960938 C 5.117188 -1.957031 5.46875 -2.039063 5.933594 -2.210938 L 6.160156 -0.167969 C 5.542969 0.09375 4.851563 0.222656 4.078125 0.226563 C 3.601563 0.222656 3.171875 0.144531 2.792969 -0.0117188 C 2.410156 -0.171875 2.128906 -0.378906 1.953125 -0.632813 C 1.773438 -0.882813 1.652344 -1.222656 1.585938 -1.660156 C 1.527344 -1.960938 1.5 -2.582031 1.5 -3.515625 L 1.5 -7.855469 L 0.289063 -7.855469 L 0.289063 -9.957031 L 1.5 -9.957031 L 1.5 -11.933594 L 4.144531 -13.472656 L 4.144531 -9.957031 Z M 5.945313 -9.957031 "/>
</symbol>
<symbol overflow="visible" id="glyph0-5">
<path style="stroke:none;" d="M 1.378906 -11.304688 L 1.378906 -13.742188 L 4.011719 -13.742188 L 4.011719 -11.304688 Z M 1.378906 0 L 1.378906 -9.957031 L 4.011719 -9.957031 L 4.011719 0 Z M 1.378906 0 "/>
</symbol>
<symbol overflow="visible" id="glyph0-6">
<path style="stroke:none;" d="M 4.117188 0 L 0.101563 -9.957031 L 2.867188 -9.957031 L 4.742188 -4.875 L 5.289063 -3.179688 C 5.429688 -3.605469 5.519531 -3.890625 5.558594 -4.03125 C 5.644531 -4.3125 5.738281 -4.59375 5.839844 -4.875 L 7.734375 -9.957031 L 10.445313 -9.957031 L 6.488281 0 Z M 4.117188 0 "/>
</symbol>
<symbol overflow="visible" id="glyph0-7">
<path style="stroke:none;" d=""/>
</symbol>
<symbol overflow="visible" id="glyph0-8">
<path style="stroke:none;" d="M 0.695313 -4.472656 L 3.394531 -4.734375 C 3.550781 -3.828125 3.882813 -3.160156 4.382813 -2.738281 C 4.878906 -2.308594 5.546875 -2.097656 6.394531 -2.101563 C 7.285156 -2.097656 7.960938 -2.285156 8.414063 -2.667969 C 8.867188 -3.042969 9.09375 -3.484375 9.09375 -3.992188 C 9.09375 -4.3125 8.996094 -4.589844 8.808594 -4.820313 C 8.613281 -5.046875 8.28125 -5.246094 7.808594 -5.417969 C 7.480469 -5.527344 6.738281 -5.726563 5.585938 -6.019531 C 4.09375 -6.382813 3.050781 -6.835938 2.457031 -7.378906 C 1.609375 -8.128906 1.1875 -9.050781 1.191406 -10.144531 C 1.1875 -10.839844 1.386719 -11.496094 1.785156 -12.109375 C 2.179688 -12.714844 2.75 -13.179688 3.5 -13.5 C 4.242188 -13.816406 5.144531 -13.972656 6.207031 -13.976563 C 7.925781 -13.972656 9.226563 -13.597656 10.101563 -12.84375 C 10.972656 -12.085938 11.429688 -11.074219 11.476563 -9.816406 L 8.699219 -9.695313 C 8.578125 -10.398438 8.324219 -10.90625 7.9375 -11.214844 C 7.542969 -11.523438 6.957031 -11.675781 6.179688 -11.679688 C 5.371094 -11.675781 4.738281 -11.511719 4.285156 -11.183594 C 3.988281 -10.96875 3.84375 -10.683594 3.84375 -10.332031 C 3.84375 -10.003906 3.980469 -9.726563 4.257813 -9.496094 C 4.605469 -9.199219 5.453125 -8.894531 6.804688 -8.578125 C 8.152344 -8.257813 9.152344 -7.925781 9.800781 -7.589844 C 10.445313 -7.246094 10.953125 -6.78125 11.320313 -6.191406 C 11.683594 -5.597656 11.863281 -4.867188 11.867188 -4.003906 C 11.863281 -3.210938 11.644531 -2.472656 11.210938 -1.789063 C 10.769531 -1.097656 10.152344 -0.589844 9.355469 -0.257813 C 8.554688 0.0742188 7.558594 0.238281 6.367188 0.242188 C 4.625 0.238281 3.289063 -0.160156 2.359375 -0.960938 C 1.425781 -1.761719 0.871094 -2.929688 0.695313 -4.472656 Z M 0.695313 -4.472656 "/>
</symbol>
<symbol overflow="visible" id="glyph0-9">
<path style="stroke:none;" d="M 1.285156 0 L 1.285156 -13.742188 L 3.917969 -13.742188 L 3.917969 -6.449219 L 7.003906 -9.957031 L 10.246094 -9.957031 L 6.84375 -6.320313 L 10.492188 0 L 7.648438 0 L 5.148438 -4.472656 L 3.917969 -3.1875 L 3.917969 0 Z M 1.285156 0 "/>
</symbol>
<symbol overflow="visible" id="glyph0-10">
<path style="stroke:none;" d="M 3.234375 0 L 0.0859375 -9.957031 L 2.644531 -9.957031 L 4.507813 -3.429688 L 6.226563 -9.957031 L 8.765625 -9.957031 L 10.425781 -3.429688 L 12.328125 -9.957031 L 14.925781 -9.957031 L 11.726563 0 L 9.195313 0 L 7.480469 -6.402344 L 5.792969 0 Z M 3.234375 0 "/>
</symbol>
<symbol overflow="visible" id="glyph0-11">
<path style="stroke:none;" d="M 10.507813 0 L 8.0625 0 L 8.0625 -1.460938 C 7.65625 -0.890625 7.175781 -0.46875 6.621094 -0.191406 C 6.066406 0.0859375 5.507813 0.222656 4.949219 0.226563 C 3.804688 0.222656 2.824219 -0.234375 2.011719 -1.15625 C 1.191406 -2.074219 0.785156 -3.363281 0.789063 -5.015625 C 0.785156 -6.703125 1.179688 -7.984375 1.976563 -8.863281 C 2.765625 -9.738281 3.769531 -10.175781 4.988281 -10.179688 C 6.097656 -10.175781 7.0625 -9.714844 7.875 -8.792969 L 7.875 -13.742188 L 10.507813 -13.742188 Z M 3.476563 -5.195313 C 3.472656 -4.128906 3.621094 -3.359375 3.917969 -2.886719 C 4.339844 -2.195313 4.933594 -1.851563 5.699219 -1.855469 C 6.304688 -1.851563 6.820313 -2.109375 7.246094 -2.628906 C 7.667969 -3.140625 7.878906 -3.910156 7.882813 -4.941406 C 7.878906 -6.082031 7.675781 -6.90625 7.265625 -7.410156 C 6.851563 -7.910156 6.320313 -8.160156 5.679688 -8.164063 C 5.050781 -8.160156 4.527344 -7.914063 4.109375 -7.417969 C 3.683594 -6.921875 3.472656 -6.179688 3.476563 -5.195313 Z M 3.476563 -5.195313 "/>
</symbol>
<symbol overflow="visible" id="glyph1-0">
<path style="stroke:none;" d=""/>
</symbol>
<symbol overflow="visible" id="glyph2-0">
<path style="stroke:none;" d=""/>
</symbol>
</g>
<clipPath id="clip1">
  <path d="M 59.039063 59.039063 L 492.757813 59.039063 L 492.757813 482.558594 L 59.039063 482.558594 Z M 59.039063 59.039063 "/>
</clipPath>
</defs>
<g id="surface21">
<rect x="0" y="0" width="522" height="555" style="fill:rgb(100%,100%,100%);fill-opacity:1;stroke:none;"/>
<g style="fill:rgb(0%,0%,0%);fill-opacity:1;">
  <use xlink:href="#glyph0-0" x="196.960938" y="36.390625"/>
  <use xlink:href="#glyph0-1" x="210.826562" y="36.390625"/>
  <use xlink:href="#glyph0-2" x="221.504687" y="36.390625"/>
  <use xlink:href="#glyph0-3" x="233.232812" y="36.390625"/>
  <use xlink:href="#glyph0-4" x="243.910937" y="36.390625"/>
  <use xlink:href="#glyph0-5" x="250.304688" y="36.390625"/>
  <use xlink:href="#glyph0-6" x="255.639062" y="36.390625"/>
  <use xlink:href="#glyph0-1" x="266.317187" y="36.390625"/>
  <use xlink:href="#glyph0-7" x="276.995313" y="36.390625"/>
  <use xlink:href="#glyph0-8" x="282.329688" y="36.390625"/>
  <use xlink:href="#glyph0-9" x="295.135938" y="36.390625"/>
  <use xlink:href="#glyph0-1" x="305.814063" y="36.390625"/>
  <use xlink:href="#glyph0-10" x="316.492188" y="36.390625"/>
  <use xlink:href="#glyph0-1" x="331.426563" y="36.390625"/>
  <use xlink:href="#glyph0-11" x="342.104688" y="36.390625"/>
</g>
<g style="fill:rgb(0%,0%,0%);fill-opacity:1;">
  <use xlink:href="#glyph1-0" x="273.175781" y="536.28125"/>
</g>
<g style="fill:rgb(0%,0%,0%);fill-opacity:1;">
  <use xlink:href="#glyph2-0" x="12.960938" y="272.523438"/>
</g>
<g clip-path="url(#clip1)" clip-rule="nonzero">
<path style="fill-rule:nonzero;fill:rgb(67.843137%,84.705882%,90.196078%);fill-opacity:1;stroke-width:0.75;stroke-linecap:round;stroke-linejoin:round;stroke:rgb(0%,0%,0%);stroke-opacity:1;stroke-miterlimit:10;" d="M 75.066406 465.910156 L 86.851563 465.910156 L 86.851563 465.496094 L 75.066406 465.496094 Z M 75.066406 465.910156 "/>
<path style="fill-rule:nonzero;fill:rgb(67.843137%,84.705882%,90.196078%);fill-opacity:1;stroke-width:0.75;stroke-linecap:round;stroke-linejoin:round;stroke:rgb(0%,0%,0%);stroke-opacity:1;stroke-miterlimit:10;" d="M 86.851563 465.910156 L 98.636719 465.910156 Z M 86.851563 465.910156 "/>
<path style="fill-rule:nonzero;fill:rgb(67.843137%,84.705882%,90.196078%);fill-opacity:1;stroke-width:0.75;stroke-linecap:round;stroke-linejoin:round;stroke:rgb(0%,0%,0%);stroke-opacity:1;stroke-miterlimit:10;" d="M 98.636719 465.910156 L 110.421875 465.910156 L 110.421875 465.085938 L 98.636719 465.085938 Z M 98.636719 465.910156 "/>
<path style="fill-rule:nonzero;fill:rgb(67.843137%,84.705882%,90.196078%);fill-opacity:1;stroke-width:0.75;stroke-linecap:round;stroke-linejoin:round;stroke:rgb(0%,0%,0%);stroke-opacity:1;stroke-miterlimit:10;" d="M 110.417969 465.910156 L 122.203125 465.910156 L 122.203125 465.496094 L 110.417969 465.496094 Z M 110.417969 465.910156 "/>
<path style="fill-rule:nonzero;fill:rgb(67.843137%,84.705882%,90.196078%);fill-opacity:1;stroke-width:0.75;stroke-linecap:round;stroke-linejoin:round;stroke:rgb(0%,0%,0%);stroke-opacity:1;stroke-miterlimit:10;" d="M 122.203125 465.910156 L 133.988281 465.910156 L 133.988281 465.496094 L 122.203125 465.496094 Z M 122.203125 465.910156 "/>
<path style="fill-rule:nonzero;fill:rgb(67.843137%,84.705882%,90.196078%);fill-opacity:1;stroke-width:0.75;stroke-linecap:round;stroke-linejoin:round;stroke:rgb(0%,0%,0%);stroke-opacity:1;stroke-miterlimit:10;" d="M 133.988281 465.910156 L 145.773438 465.910156 Z M 133.988281 465.910156 "/>
<path style="fill-rule:nonzero;fill:rgb(67.843137%,84.705882%,90.196078%);fill-opacity:1;stroke-width:0.75;stroke-linecap:round;stroke-linejoin:round;stroke:rgb(0%,0%,0%);stroke-opacity:1;stroke-miterlimit:10;" d="M 145.773438 465.910156 L 157.558594 465.910156 L 157.558594 463.847656 L 145.773438 463.847656 Z M 145.773438 465.910156 "/>
<path style="fill-rule:nonzero;fill:rgb(67.843137%,84.705882%,90.196078%);fill-opacity:1;stroke-width:0.75;stroke-linecap:round;stroke-linejoin:round;stroke:rgb(0%,0%,0%);stroke-opacity:1;stroke-miterlimit:10;" d="M 157.558594 465.910156 L 169.34375 465.910156 L 169.34375 463.433594 L 157.558594 463.433594 Z M 157.558594 465.910156 "/>
<path style="fill-rule:nonzero;fill:rgb(67.843137%,84.705882%,90.196078%);fill-opacity:1;stroke-width:0.75;stroke-linecap:round;stroke-linejoin:round;stroke:rgb(0%,0%,0%);stroke-opacity:1;stroke-miterlimit:10;" d="M 169.339844 465.910156 L 181.125 465.910156 L 181.125 460.546875 L 169.339844 460.546875 Z M 169.339844 465.910156 "/>
<path style="fill-rule:nonzero;fill:rgb(67.843137%,84.705882%,90.196078%);fill-opacity:1;stroke-width:0.75;stroke-linecap:round;stroke-linejoin:round;stroke:rgb(0%,0%,0%);stroke-opacity:1;stroke-miterlimit:10;" d="M 181.125 465.910156 L 192.910156 465.910156 L 192.910156 457.242188 L 181.125 457.242188 Z M 181.125 465.910156 "/>
<path style="fill-rule:nonzero;fill:rgb(67.843137%,84.705882%,90.196078%);fill-opacity:1;stroke-width:0.75;stroke-linecap:round;stroke-linejoin:round;stroke:rgb(0%,0%,0%);stroke-opacity:1;stroke-miterlimit:10;" d="M 192.910156 465.910156 L 204.695313 465.910156 L 204.695313 456.417969 L 192.910156 456.417969 Z M 192.910156 465.910156 "/>
<path style="fill-rule:nonzero;fill:rgb(67.843137%,84.705882%,90.196078%);fill-opacity:1;stroke-width:0.75;stroke-linecap:round;stroke-linejoin:round;stroke:rgb(0%,0%,0%);stroke-opacity:1;stroke-miterlimit:10;" d="M 204.695313 465.910156 L 216.480469 465.910156 L 216.480469 445.277344 L 204.695313 445.277344 Z M 204.695313 465.910156 "/>
<path style="fill-rule:nonzero;fill:rgb(67.843137%,84.705882%,90.196078%);fill-opacity:1;stroke-width:0.75;stroke-linecap:round;stroke-linejoin:round;stroke:rgb(0%,0%,0%);stroke-opacity:1;stroke-miterlimit:10;" d="M 216.476563 465.910156 L 228.261719 465.910156 L 228.261719 435.785156 L 216.476563 435.785156 Z M 216.476563 465.910156 "/>
<path style="fill-rule:nonzero;fill:rgb(67.843137%,84.705882%,90.196078%);fill-opacity:1;stroke-width:0.75;stroke-linecap:round;stroke-linejoin:round;stroke:rgb(0%,0%,0%);stroke-opacity:1;stroke-miterlimit:10;" d="M 228.261719 465.910156 L 240.046875 465.910156 L 240.046875 425.46875 L 228.261719 425.46875 Z M 228.261719 465.910156 "/>
<path style="fill-rule:nonzero;fill:rgb(67.843137%,84.705882%,90.196078%);fill-opacity:1;stroke-width:0.75;stroke-linecap:round;stroke-linejoin:round;stroke:rgb(0%,0%,0%);stroke-opacity:1;stroke-miterlimit:10;" d="M 240.046875 465.910156 L 251.832031 465.910156 L 251.832031 415.5625 L 240.046875 415.5625 Z M 240.046875 465.910156 "/>
<path style="fill-rule:nonzero;fill:rgb(67.843137%,84.705882%,90.196078%);fill-opacity:1;stroke-width:0.75;stroke-linecap:round;stroke-linejoin:round;stroke:rgb(0%,0%,0%);stroke-opacity:1;stroke-miterlimit:10;" d="M 251.832031 465.910156 L 263.617188 465.910156 L 263.617188 395.339844 L 251.832031 395.339844 Z M 251.832031 465.910156 "/>
<path style="fill-rule:nonzero;fill:rgb(67.843137%,84.705882%,90.196078%);fill-opacity:1;stroke-width:0.75;stroke-linecap:round;stroke-linejoin:round;stroke:rgb(0%,0%,0%);stroke-opacity:1;stroke-miterlimit:10;" d="M 263.617188 465.910156 L 275.402344 465.910156 L 275.402344 368.515625 L 263.617188 368.515625 Z M 263.617188 465.910156 "/>
<path style="fill-rule:nonzero;fill:rgb(67.843137%,84.705882%,90.196078%);fill-opacity:1;stroke-width:0.75;stroke-linecap:round;stroke-linejoin:round;stroke:rgb(0%,0%,0%);stroke-opacity:1;stroke-miterlimit:10;" d="M 275.398438 465.910156 L 287.183594 465.910156 L 287.183594 332.203125 L 275.398438 332.203125 Z M 275.398438 465.910156 "/>
<path style="fill-rule:nonzero;fill:rgb(67.843137%,84.705882%,90.196078%);fill-opacity:1;stroke-width:0.75;stroke-linecap:round;stroke-linejoin:round;stroke:rgb(0%,0%,0%);stroke-opacity:1;stroke-miterlimit:10;" d="M 287.183594 465.910156 L 298.96875 465.910156 L 298.96875 297.125 L 287.183594 297.125 Z M 287.183594 465.910156 "/>
<path style="fill-rule:nonzero;fill:rgb(67.843137%,84.705882%,90.196078%);fill-opacity:1;stroke-width:0.75;stroke-linecap:round;stroke-linejoin:round;stroke:rgb(0%,0%,0%);stroke-opacity:1;stroke-miterlimit:10;" d="M 298.96875 465.910156 L 310.753906 465.910156 L 310.753906 252.964844 L 298.96875 252.964844 Z M 298.96875 465.910156 "/>
<path style="fill-rule:nonzero;fill:rgb(67.843137%,84.705882%,90.196078%);fill-opacity:1;stroke-width:0.75;stroke-linecap:round;stroke-linejoin:round;stroke:rgb(0%,0%,0%);stroke-opacity:1;stroke-miterlimit:10;" d="M 310.753906 465.910156 L 322.539063 465.910156 L 322.539063 241.824219 L 310.753906 241.824219 Z M 310.753906 465.910156 "/>
<path style="fill-rule:nonzero;fill:rgb(67.843137%,84.705882%,90.196078%);fill-opacity:1;stroke-width:0.75;stroke-linecap:round;stroke-linejoin:round;stroke:rgb(0%,0%,0%);stroke-opacity:1;stroke-miterlimit:10;" d="M 322.539063 465.910156 L 334.324219 465.910156 L 334.324219 178.683594 L 322.539063 178.683594 Z M 322.539063 465.910156 "/>
<path style="fill-rule:nonzero;fill:rgb(67.843137%,84.705882%,90.196078%);fill-opacity:1;stroke-width:0.75;stroke-linecap:round;stroke-linejoin:round;stroke:rgb(0%,0%,0%);stroke-opacity:1;stroke-miterlimit:10;" d="M 334.320313 465.910156 L 346.105469 465.910156 L 346.105469 133.289063 L 334.320313 133.289063 Z M 334.320313 465.910156 "/>
<path style="fill-rule:nonzero;fill:rgb(67.843137%,84.705882%,90.196078%);fill-opacity:1;stroke-width:0.75;stroke-linecap:round;stroke-linejoin:round;stroke:rgb(0%,0%,0%);stroke-opacity:1;stroke-miterlimit:10;" d="M 346.105469 465.910156 L 357.890625 465.910156 L 357.890625 89.957031 L 346.105469 89.957031 Z M 346.105469 465.910156 "/>
<path style="fill-rule:nonzero;fill:rgb(67.843137%,84.705882%,90.196078%);fill-opacity:1;stroke-width:0.75;stroke-linecap:round;stroke-linejoin:round;stroke:rgb(0%,0%,0%);stroke-opacity:1;stroke-miterlimit:10;" d="M 357.890625 465.910156 L 369.675781 465.910156 L 369.675781 74.6875 L 357.890625 74.6875 Z M 357.890625 465.910156 "/>
<path style="fill-rule:nonzero;fill:rgb(67.843137%,84.705882%,90.196078%);fill-opacity:1;stroke-width:0.75;stroke-linecap:round;stroke-linejoin:round;stroke:rgb(0%,0%,0%);stroke-opacity:1;stroke-miterlimit:10;" d="M 369.675781 465.910156 L 381.460938 465.910156 L 381.460938 101.097656 L 369.675781 101.097656 Z M 369.675781 465.910156 "/>
<path style="fill-rule:nonzero;fill:rgb(67.843137%,84.705882%,90.196078%);fill-opacity:1;stroke-width:0.75;stroke-linecap:round;stroke-linejoin:round;stroke:rgb(0%,0%,0%);stroke-opacity:1;stroke-miterlimit:10;" d="M 381.457031 465.910156 L 393.242188 465.910156 L 393.242188 121.734375 L 381.457031 121.734375 Z M 381.457031 465.910156 "/>
<path style="fill-rule:nonzero;fill:rgb(67.843137%,84.705882%,90.196078%);fill-opacity:1;stroke-width:0.75;stroke-linecap:round;stroke-linejoin:round;stroke:rgb(0%,0%,0%);stroke-opacity:1;stroke-miterlimit:10;" d="M 393.242188 465.910156 L 405.027344 465.910156 L 405.027344 121.734375 L 393.242188 121.734375 Z M 393.242188 465.910156 "/>
<path style="fill-rule:nonzero;fill:rgb(67.843137%,84.705882%,90.196078%);fill-opacity:1;stroke-width:0.75;stroke-linecap:round;stroke-linejoin:round;stroke:rgb(0%,0%,0%);stroke-opacity:1;stroke-miterlimit:10;" d="M 405.027344 465.910156 L 416.8125 465.910156 L 416.8125 221.191406 L 405.027344 221.191406 Z M 405.027344 465.910156 "/>
<path style="fill-rule:nonzero;fill:rgb(67.843137%,84.705882%,90.196078%);fill-opacity:1;stroke-width:0.75;stroke-linecap:round;stroke-linejoin:round;stroke:rgb(0%,0%,0%);stroke-opacity:1;stroke-miterlimit:10;" d="M 416.8125 465.910156 L 428.597656 465.910156 L 428.597656 282.265625 L 416.8125 282.265625 Z M 416.8125 465.910156 "/>
<path style="fill-rule:nonzero;fill:rgb(67.843137%,84.705882%,90.196078%);fill-opacity:1;stroke-width:0.75;stroke-linecap:round;stroke-linejoin:round;stroke:rgb(0%,0%,0%);stroke-opacity:1;stroke-miterlimit:10;" d="M 428.597656 465.910156 L 440.382813 465.910156 L 440.382813 361.5 L 428.597656 361.5 Z M 428.597656 465.910156 "/>
<path style="fill-rule:nonzero;fill:rgb(67.843137%,84.705882%,90.196078%);fill-opacity:1;stroke-width:0.75;stroke-linecap:round;stroke-linejoin:round;stroke:rgb(0%,0%,0%);stroke-opacity:1;stroke-miterlimit:10;" d="M 440.378906 465.910156 L 452.164063 465.910156 L 452.164063 416.386719 L 440.378906 416.386719 Z M 440.378906 465.910156 "/>
<path style="fill-rule:nonzero;fill:rgb(67.843137%,84.705882%,90.196078%);fill-opacity:1;stroke-width:0.75;stroke-linecap:round;stroke-linejoin:round;stroke:rgb(0%,0%,0%);stroke-opacity:1;stroke-miterlimit:10;" d="M 452.164063 465.910156 L 463.949219 465.910156 L 463.949219 445.277344 L 452.164063 445.277344 Z M 452.164063 465.910156 "/>
<path style="fill-rule:nonzero;fill:rgb(67.843137%,84.705882%,90.196078%);fill-opacity:1;stroke-width:0.75;stroke-linecap:round;stroke-linejoin:round;stroke:rgb(0%,0%,0%);stroke-opacity:1;stroke-miterlimit:10;" d="M 463.949219 465.910156 L 475.734375 465.910156 L 475.734375 461.371094 L 463.949219 461.371094 Z M 463.949219 465.910156 "/>
</g>
</g>
</svg>
