<?xml version="1.0" encoding="UTF-8"?>
<svg xmlns="http://www.w3.org/2000/svg" xmlns:xlink="http://www.w3.org/1999/xlink" width="522pt" height="555pt" viewBox="0 0 522 555" version="1.1">
<defs>
<g>
<symbol overflow="visible" id="glyph0-0">
<path style="stroke:none;" d="M 13.789063 0 L 10.773438 0 L 9.570313 -3.121094 L 4.078125 -3.121094 L 2.945313 0 L 0 0 L 5.351563 -13.742188 L 8.289063 -13.742188 Z M 8.679688 -5.4375 L 6.789063 -10.539063 L 4.929688 -5.4375 Z M 8.679688 -5.4375 "/>
</symbol>
<symbol overflow="visible" id="glyph0-1">
<path style="stroke:none;" d=""/>
</symbol>
<symbol overflow="visible" id="glyph0-2">
<path style="stroke:none;" d="M 1.425781 0 L 1.425781 -13.742188 L 4.125 -13.742188 L 9.75 -4.566406 L 9.75 -13.742188 L 12.328125 -13.742188 L 12.328125 0 L 9.542969 0 L 4.003906 -8.960938 L 4.003906 0 Z M 1.425781 0 "/>
</symbol>
<symbol overflow="visible" id="glyph0-3">
<path style="stroke:none;" d="M 7.144531 -3.167969 L 9.769531 -2.726563 C 9.425781 -1.761719 8.894531 -1.03125 8.167969 -0.527344 C 7.441406 -0.0273438 6.53125 0.222656 5.4375 0.226563 C 3.703125 0.222656 2.421875 -0.339844 1.59375 -1.472656 C 0.9375 -2.375 0.609375 -3.519531 0.609375 -4.902344 C 0.609375 -6.550781 1.039063 -7.84375 1.902344 -8.777344 C 2.761719 -9.710938 3.851563 -10.175781 5.175781 -10.179688 C 6.652344 -10.175781 7.820313 -9.6875 8.679688 -8.710938 C 9.53125 -7.730469 9.941406 -6.234375 9.910156 -4.21875 L 3.308594 -4.21875 C 3.324219 -3.4375 3.535156 -2.828125 3.945313 -2.394531 C 4.347656 -1.957031 4.855469 -1.738281 5.464844 -1.742188 C 5.875 -1.738281 6.222656 -1.851563 6.507813 -2.078125 C 6.785156 -2.300781 6.996094 -2.664063 7.144531 -3.167969 Z M 7.292969 -5.832031 C 7.273438 -6.589844 7.078125 -7.171875 6.703125 -7.570313 C 6.328125 -7.964844 5.871094 -8.160156 5.335938 -8.164063 C 4.757813 -8.160156 4.28125 -7.953125 3.910156 -7.539063 C 3.53125 -7.117188 3.347656 -6.546875 3.355469 -5.832031 Z M 7.292969 -5.832031 "/>
</symbol>
<symbol overflow="visible" id="glyph0-4">
<path style="stroke:none;" d="M 1.132813 0.65625 L 4.144531 1.023438 C 4.191406 1.371094 4.308594 1.609375 4.492188 1.742188 C 4.738281 1.925781 5.132813 2.019531 5.671875 2.023438 C 6.359375 2.019531 6.875 1.917969 7.21875 1.714844 C 7.449219 1.574219 7.621094 1.351563 7.742188 1.050781 C 7.820313 0.828125 7.863281 0.429688 7.867188 -0.160156 L 7.867188 -1.613281 C 7.074219 -0.535156 6.078125 0 4.882813 0 C 3.542969 0 2.484375 -0.5625 1.707031 -1.695313 C 1.089844 -2.585938 0.785156 -3.699219 0.789063 -5.035156 C 0.785156 -6.699219 1.1875 -7.976563 1.992188 -8.859375 C 2.792969 -9.738281 3.789063 -10.175781 4.988281 -10.179688 C 6.214844 -10.175781 7.230469 -9.636719 8.035156 -8.558594 L 8.035156 -9.957031 L 10.5 -9.957031 L 10.5 -1.023438 C 10.5 0.152344 10.402344 1.027344 10.207031 1.613281 C 10.011719 2.191406 9.738281 2.648438 9.390625 2.980469 C 9.039063 3.308594 8.574219 3.566406 7.992188 3.757813 C 7.40625 3.941406 6.664063 4.035156 5.773438 4.039063 C 4.082031 4.035156 2.886719 3.746094 2.183594 3.171875 C 1.476563 2.589844 1.125 1.859375 1.125 0.976563 C 1.125 0.886719 1.125 0.78125 1.132813 0.65625 Z M 3.488281 -5.183594 C 3.484375 -4.125 3.691406 -3.351563 4.101563 -2.863281 C 4.507813 -2.371094 5.011719 -2.125 5.617188 -2.128906 C 6.257813 -2.125 6.800781 -2.378906 7.246094 -2.882813 C 7.6875 -3.382813 7.910156 -4.125 7.914063 -5.117188 C 7.910156 -6.144531 7.695313 -6.910156 7.273438 -7.414063 C 6.84375 -7.910156 6.308594 -8.160156 5.664063 -8.164063 C 5.027344 -8.160156 4.507813 -7.917969 4.101563 -7.429688 C 3.691406 -6.9375 3.484375 -6.1875 3.488281 -5.183594 Z M 3.488281 -5.183594 "/>
</symbol>
<symbol overflow="visible" id="glyph0-5">
<path style="stroke:none;" d="M 3.347656 -6.917969 L 0.957031 -7.351563 C 1.222656 -8.308594 1.6875 -9.019531 2.34375 -9.484375 C 3 -9.945313 3.972656 -10.175781 5.269531 -10.179688 C 6.441406 -10.175781 7.316406 -10.039063 7.894531 -9.761719 C 8.464844 -9.484375 8.871094 -9.128906 9.109375 -8.703125 C 9.339844 -8.273438 9.457031 -7.488281 9.460938 -6.347656 L 9.429688 -3.273438 C 9.425781 -2.394531 9.46875 -1.75 9.554688 -1.335938 C 9.636719 -0.917969 9.796875 -0.472656 10.03125 0 L 7.425781 0 C 7.351563 -0.171875 7.269531 -0.429688 7.171875 -0.777344 C 7.125 -0.929688 7.09375 -1.03125 7.078125 -1.085938 C 6.625 -0.644531 6.140625 -0.316406 5.632813 -0.101563 C 5.117188 0.117188 4.570313 0.222656 3.992188 0.226563 C 2.964844 0.222656 2.160156 -0.0546875 1.570313 -0.609375 C 0.976563 -1.164063 0.679688 -1.867188 0.683594 -2.71875 C 0.679688 -3.28125 0.8125 -3.78125 1.085938 -4.222656 C 1.351563 -4.660156 1.730469 -4.996094 2.21875 -5.234375 C 2.699219 -5.464844 3.398438 -5.671875 4.3125 -5.851563 C 5.542969 -6.078125 6.394531 -6.292969 6.871094 -6.496094 L 6.871094 -6.757813 C 6.867188 -7.261719 6.742188 -7.625 6.496094 -7.839844 C 6.242188 -8.054688 5.769531 -8.160156 5.082031 -8.164063 C 4.609375 -8.160156 4.246094 -8.070313 3.984375 -7.886719 C 3.71875 -7.703125 3.503906 -7.378906 3.347656 -6.917969 Z M 6.871094 -4.78125 C 6.53125 -4.667969 5.996094 -4.53125 5.269531 -4.378906 C 4.535156 -4.21875 4.058594 -4.066406 3.835938 -3.917969 C 3.488281 -3.671875 3.316406 -3.363281 3.320313 -2.992188 C 3.316406 -2.621094 3.453125 -2.300781 3.730469 -2.035156 C 4.003906 -1.761719 4.355469 -1.628906 4.78125 -1.632813 C 5.253906 -1.628906 5.707031 -1.785156 6.140625 -2.101563 C 6.457031 -2.335938 6.664063 -2.625 6.769531 -2.972656 C 6.832031 -3.191406 6.867188 -3.621094 6.871094 -4.257813 Z M 6.871094 -4.78125 "/>
</symbol>
<symbol overflow="visible" id="glyph0-6">
<path style="stroke:none;" d="M 5.945313 -9.957031 L 5.945313 -7.855469 L 4.144531 -7.855469 L 4.144531 -3.84375 C 4.140625 -3.03125 4.160156 -2.554688 4.195313 -2.421875 C 4.226563 -2.285156 4.304688 -2.175781 4.429688 -2.089844 C 4.550781 -2 4.699219 -1.957031 4.875 -1.960938 C 5.117188 -1.957031 5.46875 -2.039063 5.933594 -2.210938 L 6.160156 -0.167969 C 5.542969 0.09375 4.851563 0.222656 4.078125 0.226563 C 3.601563 0.222656 3.171875 0.144531 2.792969 -0.0117188 C 2.410156 -0.171875 2.128906 -0.378906 1.953125 -0.632813 C 1.773438 -0.882813 1.652344 -1.222656 1.585938 -1.660156 C 1.527344 -1.960938 1.5 -2.582031 1.5 -3.515625 L 1.5 -7.855469 L 0.289063 -7.855469 L 0.289063 -9.957031 L 1.5 -9.957031 L 1.5 -11.933594 L 4.144531 -13.472656 L 4.144531 -9.957031 Z M 5.945313 -9.957031 "/>
</symbol>
<symbol overflow="visible" id="glyph0-7">
<path style="stroke:none;" d="M 1.378906 -11.304688 L 1.378906 -13.742188 L 4.011719 -13.742188 L 4.011719 -11.304688 Z M 1.378906 0 L 1.378906 -9.957031 L 4.011719 -9.957031 L 4.011719 0 Z M 1.378906 0 "/>
</symbol>
<symbol overflow="visible" id="glyph0-8">
<path style="stroke:none;" d="M 4.117188 0 L 0.101563 -9.957031 L 2.867188 -9.957031 L 4.742188 -4.875 L 5.289063 -3.179688 C 5.429688 -3.605469 5.519531 -3.890625 5.558594 -4.03125 C 5.644531 -4.3125 5.738281 -4.59375 5.839844 -4.875 L 7.734375 -9.957031 L 10.445313 -9.957031 L 6.488281 0 Z M 4.117188 0 "/>
</symbol>
<symbol overflow="visible" id="glyph0-9">
<path style="stroke:none;" d="M 1.378906 0 L 1.378906 -13.742188 L 4.011719 -13.742188 L 4.011719 0 Z M 1.378906 0 "/>
</symbol>
<symbol overflow="visible" id="glyph0-10">
<path style="stroke:none;" d="M 0.132813 -9.957031 L 2.933594 -9.957031 L 5.316406 -2.886719 L 7.640625 -9.957031 L 10.367188 -9.957031 L 6.851563 -0.375 L 6.226563 1.359375 C 5.992188 1.9375 5.769531 2.378906 5.5625 2.6875 C 5.351563 2.992188 5.113281 3.242188 4.839844 3.433594 C 4.566406 3.625 4.230469 3.773438 3.835938 3.878906 C 3.4375 3.984375 2.988281 4.035156 2.492188 4.039063 C 1.984375 4.035156 1.488281 3.984375 1.003906 3.882813 L 0.769531 1.820313 C 1.175781 1.898438 1.546875 1.9375 1.882813 1.941406 C 2.492188 1.9375 2.945313 1.757813 3.242188 1.402344 C 3.53125 1.039063 3.757813 0.582031 3.917969 0.0273438 Z M 0.132813 -9.957031 "/>
</symbol>
<symbol overflow="visible" id="glyph0-11">
<path style="stroke:none;" d="M 0.695313 -4.472656 L 3.394531 -4.734375 C 3.550781 -3.828125 3.882813 -3.160156 4.382813 -2.738281 C 4.878906 -2.308594 5.546875 -2.097656 6.394531 -2.101563 C 7.285156 -2.097656 7.960938 -2.285156 8.414063 -2.667969 C 8.867188 -3.042969 9.09375 -3.484375 9.09375 -3.992188 C 9.09375 -4.3125 8.996094 -4.589844 8.808594 -4.820313 C 8.613281 -5.046875 8.28125 -5.246094 7.808594 -5.417969 C 7.480469 -5.527344 6.738281 -5.726563 5.585938 -6.019531 C 4.09375 -6.382813 3.050781 -6.835938 2.457031 -7.378906 C 1.609375 -8.128906 1.1875 -9.050781 1.191406 -10.144531 C 1.1875 -10.839844 1.386719 -11.496094 1.785156 -12.109375 C 2.179688 -12.714844 2.75 -13.179688 3.5 -13.5 C 4.242188 -13.816406 5.144531 -13.972656 6.207031 -13.976563 C 7.925781 -13.972656 9.226563 -13.597656 10.101563 -12.84375 C 10.972656 -12.085938 11.429688 -11.074219 11.476563 -9.816406 L 8.699219 -9.695313 C 8.578125 -10.398438 8.324219 -10.90625 7.9375 -11.214844 C 7.542969 -11.523438 6.957031 -11.675781 6.179688 -11.679688 C 5.371094 -11.675781 4.738281 -11.511719 4.285156 -11.183594 C 3.988281 -10.96875 3.84375 -10.683594 3.84375 -10.332031 C 3.84375 -10.003906 3.980469 -9.726563 4.257813 -9.496094 C 4.605469 -9.199219 5.453125 -8.894531 6.804688 -8.578125 C 8.152344 -8.257813 9.152344 -7.925781 9.800781 -7.589844 C 10.445313 -7.246094 10.953125 -6.78125 11.320313 -6.191406 C 11.683594 -5.597656 11.863281 -4.867188 11.867188 -4.003906 C 11.863281 -3.210938 11.644531 -2.472656 11.210938 -1.789063 C 10.769531 -1.097656 10.152344 -0.589844 9.355469 -0.257813 C 8.554688 0.0742188 7.558594 0.238281 6.367188 0.242188 C 4.625 0.238281 3.289063 -0.160156 2.359375 -0.960938 C 1.425781 -1.761719 0.871094 -2.929688 0.695313 -4.472656 Z M 0.695313 -4.472656 "/>
</symbol>
<symbol overflow="visible" id="glyph0-12">
<path style="stroke:none;" d="M 1.285156 0 L 1.285156 -13.742188 L 3.917969 -13.742188 L 3.917969 -6.449219 L 7.003906 -9.957031 L 10.246094 -9.957031 L 6.84375 -6.320313 L 10.492188 0 L 7.648438 0 L 5.148438 -4.472656 L 3.917969 -3.1875 L 3.917969 0 Z M 1.285156 0 "/>
</symbol>
<symbol overflow="visible" id="glyph0-13">
<path style="stroke:none;" d="M 3.234375 0 L 0.0859375 -9.957031 L 2.644531 -9.957031 L 4.507813 -3.429688 L 6.226563 -9.957031 L 8.765625 -9.957031 L 10.425781 -3.429688 L 12.328125 -9.957031 L 14.925781 -9.957031 L 11.726563 0 L 9.195313 0 L 7.480469 -6.402344 L 5.792969 0 Z M 3.234375 0 "/>
</symbol>
<symbol overflow="visible" id="glyph0-14">
<path style="stroke:none;" d="M 10.507813 0 L 8.0625 0 L 8.0625 -1.460938 C 7.65625 -0.890625 7.175781 -0.46875 6.621094 -0.191406 C 6.066406 0.0859375 5.507813 0.222656 4.949219 0.226563 C 3.804688 0.222656 2.824219 -0.234375 2.011719 -1.15625 C 1.191406 -2.074219 0.785156 -3.363281 0.789063 -5.015625 C 0.785156 -6.703125 1.179688 -7.984375 1.976563 -8.863281 C 2.765625 -9.738281 3.769531 -10.175781 4.988281 -10.179688 C 6.097656 -10.175781 7.0625 -9.714844 7.875 -8.792969 L 7.875 -13.742188 L 10.507813 -13.742188 Z M 3.476563 -5.195313 C 3.472656 -4.128906 3.621094 -3.359375 3.917969 -2.886719 C 4.339844 -2.195313 4.933594 -1.851563 5.699219 -1.855469 C 6.304688 -1.851563 6.820313 -2.109375 7.246094 -2.628906 C 7.667969 -3.140625 7.878906 -3.910156 7.882813 -4.941406 C 7.878906 -6.082031 7.675781 -6.90625 7.265625 -7.410156 C 6.851563 -7.910156 6.320313 -8.160156 5.679688 -8.164063 C 5.050781 -8.160156 4.527344 -7.914063 4.109375 -7.417969 C 3.683594 -6.921875 3.472656 -6.179688 3.476563 -5.195313 Z M 3.476563 -5.195313 "/>
</symbol>
<symbol overflow="visible" id="glyph0-15">
<path style="stroke:none;" d="M 1.386719 -13.742188 L 6.460938 -13.742188 C 7.601563 -13.738281 8.472656 -13.652344 9.074219 -13.480469 C 9.878906 -13.242188 10.570313 -12.820313 11.144531 -12.214844 C 11.71875 -11.605469 12.15625 -10.863281 12.457031 -9.988281 C 12.757813 -9.109375 12.90625 -8.027344 12.910156 -6.742188 C 12.90625 -5.605469 12.765625 -4.628906 12.488281 -3.816406 C 12.140625 -2.8125 11.652344 -2.003906 11.015625 -1.386719 C 10.53125 -0.914063 9.878906 -0.546875 9.066406 -0.289063 C 8.449219 -0.09375 7.632813 0 6.609375 0 L 1.386719 0 Z M 4.164063 -11.417969 L 4.164063 -2.316406 L 6.234375 -2.316406 C 7.007813 -2.3125 7.566406 -2.355469 7.914063 -2.445313 C 8.359375 -2.554688 8.730469 -2.746094 9.03125 -3.019531 C 9.324219 -3.285156 9.566406 -3.726563 9.757813 -4.34375 C 9.941406 -4.957031 10.035156 -5.796875 10.039063 -6.863281 C 10.035156 -7.921875 9.941406 -8.738281 9.757813 -9.308594 C 9.566406 -9.875 9.304688 -10.320313 8.96875 -10.640625 C 8.628906 -10.957031 8.203125 -11.171875 7.6875 -11.289063 C 7.296875 -11.371094 6.535156 -11.414063 5.410156 -11.417969 Z M 4.164063 -11.417969 "/>
</symbol>
<symbol overflow="visible" id="glyph0-16">
<path style="stroke:none;" d="M 0.449219 -2.839844 L 3.09375 -3.242188 C 3.203125 -2.726563 3.429688 -2.339844 3.777344 -2.078125 C 4.117188 -1.808594 4.597656 -1.675781 5.222656 -1.679688 C 5.898438 -1.675781 6.410156 -1.800781 6.757813 -2.054688 C 6.984375 -2.226563 7.101563 -2.460938 7.105469 -2.757813 C 7.101563 -2.953125 7.039063 -3.117188 6.917969 -3.253906 C 6.785156 -3.375 6.492188 -3.492188 6.039063 -3.601563 C 3.910156 -4.066406 2.5625 -4.492188 1.996094 -4.882813 C 1.207031 -5.417969 0.8125 -6.167969 0.816406 -7.125 C 0.8125 -7.984375 1.152344 -8.707031 1.835938 -9.296875 C 2.515625 -9.882813 3.574219 -10.175781 5.007813 -10.179688 C 6.367188 -10.175781 7.378906 -9.957031 8.042969 -9.515625 C 8.703125 -9.070313 9.160156 -8.414063 9.414063 -7.546875 L 6.929688 -7.085938 C 6.820313 -7.46875 6.617188 -7.765625 6.324219 -7.976563 C 6.023438 -8.179688 5.601563 -8.285156 5.054688 -8.289063 C 4.355469 -8.285156 3.859375 -8.1875 3.5625 -7.996094 C 3.359375 -7.855469 3.257813 -7.675781 3.261719 -7.460938 C 3.257813 -7.269531 3.34375 -7.113281 3.523438 -6.984375 C 3.757813 -6.808594 4.578125 -6.558594 5.984375 -6.242188 C 7.382813 -5.921875 8.363281 -5.53125 8.925781 -5.070313 C 9.472656 -4.597656 9.75 -3.945313 9.75 -3.113281 C 9.75 -2.195313 9.367188 -1.410156 8.605469 -0.757813 C 7.839844 -0.101563 6.710938 0.222656 5.222656 0.226563 C 3.863281 0.222656 2.789063 -0.0507813 2 -0.597656 C 1.207031 -1.148438 0.691406 -1.894531 0.449219 -2.839844 Z M 0.449219 -2.839844 "/>
</symbol>
<symbol overflow="visible" id="glyph0-17">
<path style="stroke:none;" d="M 3.898438 0 L 1.265625 0 L 1.265625 -9.957031 L 3.710938 -9.957031 L 3.710938 -8.539063 C 4.125 -9.203125 4.503906 -9.644531 4.839844 -9.859375 C 5.175781 -10.070313 5.554688 -10.175781 5.980469 -10.179688 C 6.578125 -10.175781 7.15625 -10.011719 7.714844 -9.683594 L 6.898438 -7.386719 C 6.453125 -7.671875 6.042969 -7.816406 5.664063 -7.820313 C 5.292969 -7.816406 4.980469 -7.714844 4.722656 -7.515625 C 4.464844 -7.308594 4.261719 -6.941406 4.117188 -6.414063 C 3.96875 -5.878906 3.894531 -4.765625 3.898438 -3.074219 Z M 3.898438 0 "/>
</symbol>
<symbol overflow="visible" id="glyph0-18">
<path style="stroke:none;" d="M 1.265625 0 L 1.265625 -13.742188 L 3.898438 -13.742188 L 3.898438 -8.792969 C 4.707031 -9.714844 5.671875 -10.175781 6.789063 -10.179688 C 7.996094 -10.175781 9 -9.738281 9.796875 -8.863281 C 10.589844 -7.984375 10.984375 -6.722656 10.988281 -5.082031 C 10.984375 -3.378906 10.582031 -2.070313 9.773438 -1.152344 C 8.960938 -0.234375 7.976563 0.222656 6.824219 0.226563 C 6.253906 0.222656 5.691406 0.0820313 5.140625 -0.199219 C 4.585938 -0.484375 4.109375 -0.902344 3.710938 -1.460938 L 3.710938 0 Z M 3.882813 -5.195313 C 3.878906 -4.160156 4.039063 -3.398438 4.367188 -2.90625 C 4.820313 -2.203125 5.429688 -1.851563 6.1875 -1.855469 C 6.765625 -1.851563 7.257813 -2.101563 7.671875 -2.601563 C 8.078125 -3.097656 8.285156 -3.878906 8.289063 -4.949219 C 8.285156 -6.085938 8.078125 -6.90625 7.667969 -7.410156 C 7.253906 -7.910156 6.726563 -8.160156 6.085938 -8.164063 C 5.449219 -8.160156 4.921875 -7.917969 4.507813 -7.429688 C 4.085938 -6.9375 3.878906 -6.191406 3.882813 -5.195313 Z M 3.882813 -5.195313 "/>
</symbol>
<symbol overflow="visible" id="glyph0-19">
<path style="stroke:none;" d="M 7.929688 0 L 7.929688 -1.492188 C 7.5625 -0.957031 7.085938 -0.539063 6.5 -0.234375 C 5.90625 0.0703125 5.285156 0.222656 4.632813 0.226563 C 3.960938 0.222656 3.359375 0.078125 2.832031 -0.214844 C 2.296875 -0.507813 1.914063 -0.921875 1.675781 -1.453125 C 1.4375 -1.984375 1.316406 -2.71875 1.320313 -3.65625 L 1.320313 -9.957031 L 3.957031 -9.957031 L 3.957031 -5.382813 C 3.953125 -3.980469 4.003906 -3.121094 4.101563 -2.808594 C 4.195313 -2.488281 4.371094 -2.238281 4.628906 -2.058594 C 4.886719 -1.871094 5.210938 -1.78125 5.605469 -1.78125 C 6.054688 -1.78125 6.457031 -1.902344 6.816406 -2.152344 C 7.167969 -2.394531 7.414063 -2.703125 7.546875 -3.070313 C 7.675781 -3.433594 7.738281 -4.328125 7.742188 -5.757813 L 7.742188 -9.957031 L 10.378906 -9.957031 L 10.378906 0 Z M 7.929688 0 "/>
</symbol>
<symbol overflow="visible" id="glyph0-20">
<path style="stroke:none;" d="M 0.769531 -5.117188 C 0.765625 -5.988281 0.980469 -6.835938 1.414063 -7.65625 C 1.84375 -8.472656 2.457031 -9.097656 3.246094 -9.53125 C 4.035156 -9.960938 4.917969 -10.175781 5.898438 -10.179688 C 7.402344 -10.175781 8.636719 -9.6875 9.597656 -8.710938 C 10.558594 -7.730469 11.039063 -6.496094 11.042969 -5.007813 C 11.039063 -3.496094 10.554688 -2.246094 9.585938 -1.257813 C 8.613281 -0.269531 7.386719 0.222656 5.914063 0.226563 C 5 0.222656 4.132813 0.0195313 3.304688 -0.390625 C 2.476563 -0.800781 1.84375 -1.40625 1.414063 -2.207031 C 0.980469 -3 0.765625 -3.96875 0.769531 -5.117188 Z M 3.46875 -4.976563 C 3.46875 -3.984375 3.703125 -3.230469 4.171875 -2.707031 C 4.640625 -2.183594 5.21875 -1.921875 5.90625 -1.921875 C 6.59375 -1.921875 7.167969 -2.183594 7.636719 -2.707031 C 8.097656 -3.230469 8.332031 -3.992188 8.335938 -4.996094 C 8.332031 -5.96875 8.097656 -6.71875 7.636719 -7.246094 C 7.167969 -7.769531 6.59375 -8.03125 5.90625 -8.035156 C 5.21875 -8.03125 4.640625 -7.769531 4.171875 -7.246094 C 3.703125 -6.71875 3.46875 -5.960938 3.46875 -4.976563 Z M 3.46875 -4.976563 "/>
</symbol>
<symbol overflow="visible" id="glyph0-21">
<path style="stroke:none;" d="M 10.433594 0 L 7.800781 0 L 7.800781 -5.082031 C 7.796875 -6.152344 7.742188 -6.847656 7.628906 -7.167969 C 7.515625 -7.480469 7.332031 -7.726563 7.082031 -7.902344 C 6.828125 -8.074219 6.523438 -8.160156 6.167969 -8.164063 C 5.710938 -8.160156 5.300781 -8.035156 4.941406 -7.789063 C 4.574219 -7.535156 4.328125 -7.207031 4.195313 -6.796875 C 4.058594 -6.382813 3.988281 -5.617188 3.992188 -4.507813 L 3.992188 0 L 1.359375 0 L 1.359375 -9.957031 L 3.804688 -9.957031 L 3.804688 -8.492188 C 4.671875 -9.613281 5.765625 -10.175781 7.085938 -10.179688 C 7.664063 -10.175781 8.195313 -10.074219 8.679688 -9.867188 C 9.15625 -9.65625 9.523438 -9.386719 9.773438 -9.066406 C 10.019531 -8.738281 10.191406 -8.371094 10.289063 -7.957031 C 10.382813 -7.542969 10.429688 -6.953125 10.433594 -6.1875 Z M 10.433594 0 "/>
</symbol>
</g>
<clipPath id="clip1">
  <path d="M 59.039063 59.039063 L 492.757813 59.039063 L 492.757813 482.558594 L 59.039063 482.558594 Z M 59.039063 59.039063 "/>
</clipPath>
<clipPath id="clip2">
  <path d="M 59.039063 59.039063 L 492.757813 59.039063 L 492.757813 482.558594 L 59.039063 482.558594 Z M 59.039063 59.039063 "/>
</clipPath>
</defs>
<g id="surface26">
<rect x="0" y="0" width="522" height="555" style="fill:rgb(100%,100%,100%);fill-opacity:1;stroke:none;"/>
<g clip-path="url(#clip1)" clip-rule="nonzero">
<path style="fill:none;stroke-width:0.75;stroke-linecap:round;stroke-linejoin:round;stroke:rgb(0%,0%,0%);stroke-opacity:1;stroke-miterlimit:10;" d="M 75.066406 465.910156 L 75.851563 465.90625 L 76.636719 465.90625 L 77.417969 465.898438 L 78.988281 465.890625 L 79.769531 465.882813 L 81.339844 465.867188 L 82.125 465.855469 L 82.90625 465.84375 L 83.691406 465.832031 L 84.476563 465.816406 L 85.257813 465.796875 L 86.828125 465.757813 L 87.613281 465.734375 L 88.394531 465.707031 L 89.964844 465.644531 L 90.75 465.605469 L 91.53125 465.566406 L 92.316406 465.523438 L 93.101563 465.476563 L 93.882813 465.425781 L 94.667969 465.371094 L 95.453125 465.3125 L 96.238281 465.25 L 97.019531 465.183594 L 97.804688 465.113281 L 98.589844 465.039063 L 99.375 464.960938 L 100.15625 464.878906 L 100.941406 464.796875 L 101.726563 464.710938 L 102.507813 464.621094 L 104.078125 464.441406 L 104.863281 464.347656 L 105.644531 464.253906 L 106.429688 464.164063 L 107.214844 464.070313 L 108 463.980469 L 108.78125 463.894531 L 109.566406 463.808594 L 110.351563 463.726563 L 111.132813 463.648438 L 112.703125 463.507813 L 113.488281 463.445313 L 114.269531 463.390625 L 115.054688 463.339844 L 115.839844 463.296875 L 116.625 463.261719 L 117.40625 463.230469 L 118.191406 463.207031 L 118.976563 463.191406 L 119.757813 463.183594 L 120.542969 463.179688 L 121.328125 463.183594 L 122.113281 463.191406 L 122.894531 463.203125 L 123.679688 463.21875 L 124.464844 463.242188 L 125.246094 463.265625 L 126.03125 463.289063 L 126.816406 463.316406 L 127.601563 463.339844 L 128.382813 463.367188 L 129.167969 463.390625 L 129.953125 463.410156 L 130.738281 463.425781 L 131.519531 463.4375 L 132.304688 463.445313 L 133.089844 463.449219 L 133.871094 463.445313 L 134.65625 463.433594 L 135.441406 463.414063 L 136.226563 463.386719 L 137.007813 463.355469 L 137.792969 463.3125 L 138.578125 463.261719 L 139.363281 463.199219 L 140.144531 463.132813 L 140.929688 463.058594 L 141.714844 462.976563 L 142.496094 462.886719 L 143.28125 462.789063 L 144.066406 462.6875 L 144.851563 462.582031 L 145.632813 462.46875 L 146.417969 462.355469 L 147.203125 462.238281 L 147.988281 462.117188 L 148.769531 461.996094 L 149.554688 461.871094 L 150.339844 461.75 L 151.121094 461.628906 L 151.90625 461.507813 L 152.691406 461.390625 L 153.476563 461.277344 L 154.257813 461.164063 L 155.042969 461.054688 L 155.828125 460.949219 L 156.613281 460.847656 L 157.394531 460.75 L 158.179688 460.65625 L 158.964844 460.566406 L 159.746094 460.476563 L 161.316406 460.3125 L 162.101563 460.234375 L 162.882813 460.160156 L 164.453125 460.011719 L 165.234375 459.9375 L 166.019531 459.863281 L 166.804688 459.792969 L 167.589844 459.71875 L 168.371094 459.640625 L 169.15625 459.5625 L 170.726563 459.398438 L 171.507813 459.3125 L 172.292969 459.222656 L 173.078125 459.128906 L 173.859375 459.03125 L 175.429688 458.828125 L 176.214844 458.71875 L 176.996094 458.609375 L 179.351563 458.257813 L 180.132813 458.132813 L 180.917969 458.007813 L 181.703125 457.878906 L 182.484375 457.746094 L 184.054688 457.480469 L 184.839844 457.339844 L 185.621094 457.203125 L 187.976563 456.769531 L 188.757813 456.617188 L 189.542969 456.464844 L 190.328125 456.308594 L 191.109375 456.148438 L 191.894531 455.984375 L 192.679688 455.8125 L 193.464844 455.632813 L 194.246094 455.453125 L 195.03125 455.261719 L 195.816406 455.066406 L 196.601563 454.859375 L 197.382813 454.644531 L 198.167969 454.421875 L 198.953125 454.191406 L 199.734375 453.949219 L 200.519531 453.695313 L 201.304688 453.433594 L 202.089844 453.164063 L 202.871094 452.882813 L 203.65625 452.59375 L 204.441406 452.292969 L 205.222656 451.988281 L 206.007813 451.671875 L 206.792969 451.351563 L 207.578125 451.023438 L 208.359375 450.691406 L 209.929688 450.019531 L 210.714844 449.679688 L 211.496094 449.34375 L 213.066406 448.671875 L 213.847656 448.34375 L 214.632813 448.019531 L 215.417969 447.707031 L 216.203125 447.398438 L 216.984375 447.101563 L 217.769531 446.8125 L 218.554688 446.535156 L 219.339844 446.273438 L 220.121094 446.023438 L 220.90625 445.78125 L 221.691406 445.554688 L 222.472656 445.347656 L 223.257813 445.148438 L 224.042969 444.960938 L 224.828125 444.789063 L 225.609375 444.625 L 226.394531 444.476563 L 227.179688 444.335938 L 227.964844 444.203125 L 228.746094 444.078125 L 229.53125 443.957031 L 230.316406 443.839844 L 231.097656 443.730469 L 233.453125 443.390625 L 234.234375 443.269531 L 235.019531 443.144531 L 235.804688 443.011719 L 236.585938 442.871094 L 237.371094 442.71875 L 238.15625 442.554688 L 238.941406 442.375 L 239.722656 442.1875 L 240.507813 441.984375 L 241.292969 441.765625 L 242.078125 441.527344 L 242.859375 441.28125 L 243.644531 441.015625 L 244.429688 440.738281 L 245.210938 440.445313 L 245.996094 440.140625 L 246.78125 439.820313 L 247.566406 439.492188 L 248.347656 439.15625 L 249.132813 438.8125 L 249.917969 438.460938 L 250.703125 438.105469 L 251.484375 437.746094 L 252.269531 437.386719 L 253.054688 437.03125 L 253.835938 436.679688 L 254.621094 436.332031 L 255.40625 435.992188 L 256.191406 435.664063 L 256.972656 435.34375 L 257.757813 435.039063 L 258.542969 434.742188 L 259.328125 434.464844 L 260.109375 434.195313 L 260.894531 433.949219 L 261.679688 433.714844 L 262.460938 433.5 L 263.246094 433.296875 L 264.03125 433.105469 L 264.816406 432.933594 L 265.597656 432.773438 L 266.382813 432.625 L 267.167969 432.484375 L 267.953125 432.351563 L 268.734375 432.230469 L 269.519531 432.109375 L 270.304688 431.992188 L 271.085938 431.875 L 271.871094 431.757813 L 272.65625 431.636719 L 273.441406 431.507813 L 274.222656 431.375 L 275.007813 431.234375 L 275.792969 431.078125 L 276.574219 430.910156 L 277.359375 430.730469 L 278.144531 430.535156 L 278.929688 430.328125 L 279.710938 430.101563 L 280.496094 429.855469 L 281.28125 429.589844 L 282.066406 429.3125 L 282.847656 429.015625 L 283.632813 428.695313 L 284.417969 428.359375 L 285.199219 428.003906 L 285.984375 427.632813 L 286.769531 427.246094 L 287.554688 426.835938 L 288.335938 426.40625 L 289.121094 425.960938 L 289.90625 425.5 L 290.691406 425.023438 L 291.472656 424.519531 L 292.257813 424.003906 L 293.042969 423.46875 L 293.824219 422.914063 L 294.609375 422.34375 L 295.394531 421.746094 L 296.179688 421.128906 L 296.960938 420.496094 L 297.746094 419.839844 L 298.53125 419.164063 L 299.316406 418.457031 L 300.097656 417.734375 L 300.882813 416.984375 L 301.667969 416.214844 L 302.449219 415.417969 L 303.234375 414.59375 L 304.019531 413.746094 L 304.804688 412.875 L 305.585938 411.980469 L 306.371094 411.0625 L 307.15625 410.117188 L 307.941406 409.152344 L 308.722656 408.164063 L 309.507813 407.160156 L 310.292969 406.132813 L 311.074219 405.085938 L 311.859375 404.023438 L 312.644531 402.945313 L 313.429688 401.859375 L 314.210938 400.757813 L 314.996094 399.648438 L 315.78125 398.53125 L 316.5625 397.410156 L 318.917969 394.046875 L 319.699219 392.933594 L 320.484375 391.828125 L 321.269531 390.734375 L 322.054688 389.652344 L 322.835938 388.585938 L 323.621094 387.539063 L 324.40625 386.507813 L 325.1875 385.496094 L 325.972656 384.519531 L 326.757813 383.5625 L 327.542969 382.636719 L 328.324219 381.738281 L 329.109375 380.871094 L 329.894531 380.046875 L 330.679688 379.253906 L 331.460938 378.496094 L 332.246094 377.773438 L 333.03125 377.09375 L 333.8125 376.457031 L 334.597656 375.859375 L 335.382813 375.296875 L 336.167969 374.777344 L 336.949219 374.300781 L 337.734375 373.867188 L 338.519531 373.472656 L 339.304688 373.117188 L 340.085938 372.792969 L 340.871094 372.511719 L 341.65625 372.265625 L 342.4375 372.046875 L 343.222656 371.855469 L 344.007813 371.691406 L 344.792969 371.550781 L 345.574219 371.429688 L 346.359375 371.320313 L 347.144531 371.222656 L 347.925781 371.128906 L 348.710938 371.035156 L 349.496094 370.9375 L 350.28125 370.828125 L 351.0625 370.703125 L 351.847656 370.5625 L 352.632813 370.386719 L 353.417969 370.179688 L 354.199219 369.933594 L 354.984375 369.648438 L 355.769531 369.320313 L 356.550781 368.921875 L 357.335938 368.472656 L 358.121094 367.960938 L 358.90625 367.390625 L 359.6875 366.75 L 360.472656 366.023438 L 361.257813 365.226563 L 362.042969 364.359375 L 362.824219 363.417969 L 363.609375 362.398438 L 364.394531 361.285156 L 365.175781 360.097656 L 365.960938 358.839844 L 366.746094 357.511719 L 367.53125 356.101563 L 368.3125 354.613281 L 369.097656 353.0625 L 369.882813 351.449219 L 370.667969 349.777344 L 371.449219 348.042969 L 372.234375 346.25 L 373.019531 344.410156 L 373.800781 342.53125 L 374.585938 340.613281 L 375.371094 338.652344 L 376.15625 336.660156 L 376.9375 334.644531 L 377.722656 332.605469 L 378.507813 330.542969 L 379.292969 328.464844 L 380.074219 326.371094 L 380.859375 324.269531 L 381.644531 322.152344 L 382.425781 320.03125 L 383.210938 317.894531 L 383.996094 315.75 L 384.78125 313.59375 L 385.5625 311.421875 L 386.347656 309.238281 L 387.132813 307.027344 L 387.914063 304.789063 L 388.699219 302.519531 L 389.484375 300.214844 L 390.269531 297.867188 L 391.050781 295.449219 L 391.835938 292.972656 L 392.621094 290.425781 L 393.40625 287.800781 L 394.1875 285.074219 L 394.972656 282.230469 L 395.757813 279.269531 L 396.539063 276.1875 L 397.324219 272.972656 L 398.109375 269.59375 L 398.894531 266.03125 L 399.675781 262.304688 L 400.460938 258.402344 L 401.246094 254.320313 L 402.03125 250.007813 L 402.8125 245.472656 L 403.597656 240.738281 L 404.382813 235.792969 L 405.164063 230.644531 L 405.949219 225.238281 L 406.734375 219.609375 L 407.519531 213.78125 L 408.300781 207.757813 L 409.085938 201.550781 L 409.871094 195.125 L 410.65625 188.539063 L 411.4375 181.816406 L 412.222656 174.984375 L 413.007813 168.050781 L 413.789063 161.039063 L 414.574219 154.007813 L 415.359375 146.984375 L 416.144531 140.003906 L 416.925781 133.097656 L 417.710938 126.359375 L 418.496094 119.808594 L 419.28125 113.484375 L 420.0625 107.421875 L 420.847656 101.695313 L 421.632813 96.445313 L 422.414063 91.632813 L 423.199219 87.292969 L 423.984375 83.472656 L 424.769531 80.28125 L 425.550781 77.855469 L 426.335938 76.09375 L 427.121094 75.03125 L 427.902344 74.6875 L 428.6875 75.222656 L 429.472656 76.6875 L 430.257813 78.949219 L 431.039063 82.015625 L 431.824219 85.890625 L 432.609375 90.734375 L 433.394531 96.480469 L 434.175781 102.992188 L 434.960938 110.253906 L 435.746094 118.230469 L 436.527344 127.050781 L 437.3125 136.554688 L 438.097656 146.621094 L 438.882813 157.210938 L 439.664063 168.269531 L 440.449219 179.839844 L 441.234375 191.742188 L 442.019531 203.894531 L 442.800781 216.242188 L 443.585938 228.726563 L 444.371094 241.277344 L 445.152344 253.804688 L 445.9375 266.246094 L 446.722656 278.554688 L 447.507813 290.675781 L 448.289063 302.472656 L 449.074219 313.960938 L 449.859375 325.113281 L 450.644531 335.894531 L 451.425781 346.25 L 452.210938 356.050781 L 452.996094 365.398438 L 453.777344 374.28125 L 454.5625 382.691406 L 455.347656 390.566406 L 456.132813 397.847656 L 456.914063 404.65625 L 457.699219 411 L 458.484375 416.882813 L 459.269531 422.25 L 460.050781 427.117188 L 460.835938 431.582031 L 461.621094 435.660156 L 462.402344 439.367188 L 463.1875 442.664063 L 463.972656 445.601563 L 464.757813 448.242188 L 465.539063 450.613281 L 466.324219 452.726563 L 467.109375 454.554688 L 467.890625 456.15625 L 468.675781 457.570313 L 469.460938 458.820313 L 470.246094 459.910156 L 471.027344 460.828125 L 471.8125 461.621094 L 472.597656 462.308594 L 473.382813 462.902344 L 474.164063 463.414063 L 474.949219 463.832031 L 475.734375 464.1875 "/>
</g>
<g style="fill:rgb(0%,0%,0%);fill-opacity:1;">
  <use xlink:href="#glyph0-0" x="122.828125" y="36.390625"/>
  <use xlink:href="#glyph0-1" x="136.69375" y="36.390625"/>
  <use xlink:href="#glyph0-2" x="142.028125" y="36.390625"/>
  <use xlink:href="#glyph0-3" x="155.89375" y="36.390625"/>
  <use xlink:href="#glyph0-4" x="166.571875" y="36.390625"/>
  <use xlink:href="#glyph0-5" x="178.3" y="36.390625"/>
  <use xlink:href="#glyph0-6" x="188.978125" y="36.390625"/>
  <use xlink:href="#glyph0-7" x="195.371875" y="36.390625"/>
  <use xlink:href="#glyph0-8" x="200.70625" y="36.390625"/>
  <use xlink:href="#glyph0-3" x="211.384375" y="36.390625"/>
  <use xlink:href="#glyph0-9" x="222.0625" y="36.390625"/>
  <use xlink:href="#glyph0-10" x="227.396875" y="36.390625"/>
  <use xlink:href="#glyph0-1" x="238.075" y="36.390625"/>
  <use xlink:href="#glyph0-11" x="243.409375" y="36.390625"/>
  <use xlink:href="#glyph0-12" x="256.215625" y="36.390625"/>
  <use xlink:href="#glyph0-3" x="266.89375" y="36.390625"/>
  <use xlink:href="#glyph0-13" x="277.571875" y="36.390625"/>
  <use xlink:href="#glyph0-3" x="292.50625" y="36.390625"/>
  <use xlink:href="#glyph0-14" x="303.184375" y="36.390625"/>
  <use xlink:href="#glyph0-1" x="314.9125" y="36.390625"/>
  <use xlink:href="#glyph0-15" x="320.246875" y="36.390625"/>
  <use xlink:href="#glyph0-7" x="334.1125" y="36.390625"/>
  <use xlink:href="#glyph0-16" x="339.446875" y="36.390625"/>
  <use xlink:href="#glyph0-6" x="350.125" y="36.390625"/>
  <use xlink:href="#glyph0-17" x="356.51875" y="36.390625"/>
  <use xlink:href="#glyph0-7" x="363.990625" y="36.390625"/>
  <use xlink:href="#glyph0-18" x="369.325" y="36.390625"/>
  <use xlink:href="#glyph0-19" x="381.053125" y="36.390625"/>
  <use xlink:href="#glyph0-6" x="392.78125" y="36.390625"/>
  <use xlink:href="#glyph0-7" x="399.175" y="36.390625"/>
  <use xlink:href="#glyph0-20" x="404.509375" y="36.390625"/>
  <use xlink:href="#glyph0-21" x="416.2375" y="36.390625"/>
</g>
<g clip-path="url(#clip2)" clip-rule="nonzero">
<path style="fill:none;stroke-width:0.075;stroke-linecap:round;stroke-linejoin:round;stroke:rgb(74.509804%,74.509804%,74.509804%);stroke-opacity:1;stroke-miterlimit:10;" d="M 59.039063 465.925781 L 491.761719 465.925781 "/>
<path style="fill:none;stroke-width:0.75;stroke-linecap:round;stroke-linejoin:round;stroke:rgb(100%,0%,0%);stroke-opacity:1;stroke-miterlimit:10;" d="M 383.140625 481.558594 L 383.140625 59.039063 "/>
<path style="fill:none;stroke-width:0.75;stroke-linecap:round;stroke-linejoin:round;stroke:rgb(0%,100%,0%);stroke-opacity:1;stroke-miterlimit:10;" d="M 408.039063 481.558594 L 408.039063 59.039063 "/>
</g>
</g>
</svg>
